{
  "ABIRoot": {
    "kind": "Root",
    "name": "TopLevel",
    "printedName": "TopLevel",
    "children": [
      {
        "kind": "Import",
        "name": "Foundation",
        "printedName": "Foundation",
        "declKind": "Import",
        "moduleName": "VeloxitySDK",
        "declAttributes": [
          "RawDocComment"
        ]
      },
      {
        "kind": "Import",
        "name": "MapKit",
        "printedName": "MapKit",
        "declKind": "Import",
        "moduleName": "VeloxitySDK"
      },
      {
        "kind": "TypeDecl",
        "name": "GeoFenceModel",
        "printedName": "GeoFenceModel",
        "children": [
          {
            "kind": "Var",
            "name": "identifier",
            "printedName": "identifier",
            "children": [
              {
                "kind": "TypeNominal",
                "name": "String",
                "printedName": "Swift.String",
                "usr": "s:SS"
              }
            ],
            "declKind": "Var",
            "usr": "c:@M@VeloxitySDK@objc(cs)GeoFenceModel(py)identifier",
            "mangledName": "$s11VeloxitySDK13GeoFenceModelC10identifierSSvp",
            "moduleName": "VeloxitySDK",
            "declAttributes": [
              "HasStorage",
              "AccessControl",
              "ObjC"
            ],
            "hasStorage": true,
            "accessors": [
              {
                "kind": "Accessor",
                "name": "Get",
                "printedName": "Get()",
                "children": [
                  {
                    "kind": "TypeNominal",
                    "name": "String",
                    "printedName": "Swift.String",
                    "usr": "s:SS"
                  }
                ],
                "declKind": "Accessor",
                "usr": "c:@M@VeloxitySDK@objc(cs)GeoFenceModel(im)identifier",
                "mangledName": "$s11VeloxitySDK13GeoFenceModelC10identifierSSvg",
                "moduleName": "VeloxitySDK",
                "implicit": true,
                "declAttributes": [
                  "ObjC"
                ],
                "accessorKind": "get"
              },
              {
                "kind": "Accessor",
                "name": "Set",
                "printedName": "Set()",
                "children": [
                  {
                    "kind": "TypeNominal",
                    "name": "Void",
                    "printedName": "()"
                  },
                  {
                    "kind": "TypeNominal",
                    "name": "String",
                    "printedName": "Swift.String",
                    "usr": "s:SS"
                  }
                ],
                "declKind": "Accessor",
                "usr": "c:@M@VeloxitySDK@objc(cs)GeoFenceModel(im)setIdentifier:",
                "mangledName": "$s11VeloxitySDK13GeoFenceModelC10identifierSSvs",
                "moduleName": "VeloxitySDK",
                "implicit": true,
                "declAttributes": [
                  "ObjC"
                ],
                "accessorKind": "set"
              },
              {
                "kind": "Accessor",
                "name": "Modify",
                "printedName": "Modify()",
                "children": [
                  {
                    "kind": "TypeNominal",
                    "name": "Void",
                    "printedName": "()"
                  }
                ],
                "declKind": "Accessor",
                "usr": "s:11VeloxitySDK13GeoFenceModelC10identifierSSvM",
                "mangledName": "$s11VeloxitySDK13GeoFenceModelC10identifierSSvM",
                "moduleName": "VeloxitySDK",
                "implicit": true,
                "accessorKind": "_modify"
              }
            ]
          },
          {
            "kind": "Var",
            "name": "radius",
            "printedName": "radius",
            "children": [
              {
                "kind": "TypeNominal",
                "name": "Double",
                "printedName": "Swift.Double",
                "usr": "s:Sd"
              }
            ],
            "declKind": "Var",
            "usr": "c:@M@VeloxitySDK@objc(cs)GeoFenceModel(py)radius",
            "mangledName": "$s11VeloxitySDK13GeoFenceModelC6radiusSdvp",
            "moduleName": "VeloxitySDK",
            "declAttributes": [
              "HasStorage",
              "AccessControl",
              "ObjC"
            ],
            "hasStorage": true,
            "accessors": [
              {
                "kind": "Accessor",
                "name": "Get",
                "printedName": "Get()",
                "children": [
                  {
                    "kind": "TypeNominal",
                    "name": "Double",
                    "printedName": "Swift.Double",
                    "usr": "s:Sd"
                  }
                ],
                "declKind": "Accessor",
                "usr": "c:@M@VeloxitySDK@objc(cs)GeoFenceModel(im)radius",
                "mangledName": "$s11VeloxitySDK13GeoFenceModelC6radiusSdvg",
                "moduleName": "VeloxitySDK",
                "implicit": true,
                "declAttributes": [
                  "ObjC"
                ],
                "accessorKind": "get"
              },
              {
                "kind": "Accessor",
                "name": "Set",
                "printedName": "Set()",
                "children": [
                  {
                    "kind": "TypeNominal",
                    "name": "Void",
                    "printedName": "()"
                  },
                  {
                    "kind": "TypeNominal",
                    "name": "Double",
                    "printedName": "Swift.Double",
                    "usr": "s:Sd"
                  }
                ],
                "declKind": "Accessor",
                "usr": "c:@M@VeloxitySDK@objc(cs)GeoFenceModel(im)setRadius:",
                "mangledName": "$s11VeloxitySDK13GeoFenceModelC6radiusSdvs",
                "moduleName": "VeloxitySDK",
                "implicit": true,
                "declAttributes": [
                  "ObjC"
                ],
                "accessorKind": "set"
              },
              {
                "kind": "Accessor",
                "name": "Modify",
                "printedName": "Modify()",
                "children": [
                  {
                    "kind": "TypeNominal",
                    "name": "Void",
                    "printedName": "()"
                  }
                ],
                "declKind": "Accessor",
                "usr": "s:11VeloxitySDK13GeoFenceModelC6radiusSdvM",
                "mangledName": "$s11VeloxitySDK13GeoFenceModelC6radiusSdvM",
                "moduleName": "VeloxitySDK",
                "implicit": true,
                "accessorKind": "_modify"
              }
            ]
          },
          {
            "kind": "Var",
            "name": "center",
            "printedName": "center",
            "children": [
              {
                "kind": "TypeNominal",
                "name": "CLLocationCoordinate2D",
                "printedName": "CoreLocation.CLLocationCoordinate2D",
                "usr": "c:@S@CLLocationCoordinate2D"
              }
            ],
            "declKind": "Var",
            "usr": "c:@M@VeloxitySDK@objc(cs)GeoFenceModel(py)center",
            "mangledName": "$s11VeloxitySDK13GeoFenceModelC6centerSo22CLLocationCoordinate2DVvp",
            "moduleName": "VeloxitySDK",
            "declAttributes": [
              "HasStorage",
              "AccessControl",
              "ObjC"
            ],
            "hasStorage": true,
            "accessors": [
              {
                "kind": "Accessor",
                "name": "Get",
                "printedName": "Get()",
                "children": [
                  {
                    "kind": "TypeNominal",
                    "name": "CLLocationCoordinate2D",
                    "printedName": "CoreLocation.CLLocationCoordinate2D",
                    "usr": "c:@S@CLLocationCoordinate2D"
                  }
                ],
                "declKind": "Accessor",
                "usr": "c:@M@VeloxitySDK@objc(cs)GeoFenceModel(im)center",
                "mangledName": "$s11VeloxitySDK13GeoFenceModelC6centerSo22CLLocationCoordinate2DVvg",
                "moduleName": "VeloxitySDK",
                "implicit": true,
                "declAttributes": [
                  "ObjC"
                ],
                "accessorKind": "get"
              },
              {
                "kind": "Accessor",
                "name": "Set",
                "printedName": "Set()",
                "children": [
                  {
                    "kind": "TypeNominal",
                    "name": "Void",
                    "printedName": "()"
                  },
                  {
                    "kind": "TypeNominal",
                    "name": "CLLocationCoordinate2D",
                    "printedName": "CoreLocation.CLLocationCoordinate2D",
                    "usr": "c:@S@CLLocationCoordinate2D"
                  }
                ],
                "declKind": "Accessor",
                "usr": "c:@M@VeloxitySDK@objc(cs)GeoFenceModel(im)setCenter:",
                "mangledName": "$s11VeloxitySDK13GeoFenceModelC6centerSo22CLLocationCoordinate2DVvs",
                "moduleName": "VeloxitySDK",
                "implicit": true,
                "declAttributes": [
                  "ObjC"
                ],
                "accessorKind": "set"
              },
              {
                "kind": "Accessor",
                "name": "Modify",
                "printedName": "Modify()",
                "children": [
                  {
                    "kind": "TypeNominal",
                    "name": "Void",
                    "printedName": "()"
                  }
                ],
                "declKind": "Accessor",
                "usr": "s:11VeloxitySDK13GeoFenceModelC6centerSo22CLLocationCoordinate2DVvM",
                "mangledName": "$s11VeloxitySDK13GeoFenceModelC6centerSo22CLLocationCoordinate2DVvM",
                "moduleName": "VeloxitySDK",
                "implicit": true,
                "accessorKind": "_modify"
              }
            ]
          },
          {
            "kind": "Function",
            "name": "flowerModel",
            "printedName": "flowerModel(center:radius:)",
            "children": [
              {
                "kind": "TypeNominal",
                "name": "GeoFenceModel",
                "printedName": "VeloxitySDK.GeoFenceModel",
                "usr": "c:@M@VeloxitySDK@objc(cs)GeoFenceModel"
              },
              {
                "kind": "TypeNominal",
                "name": "CLLocationCoordinate2D",
                "printedName": "CoreLocation.CLLocationCoordinate2D",
                "usr": "c:@S@CLLocationCoordinate2D"
              },
              {
                "kind": "TypeNominal",
                "name": "Double",
                "printedName": "Swift.Double",
                "usr": "s:Sd"
              }
            ],
            "declKind": "Func",
            "usr": "c:@M@VeloxitySDK@objc(cs)GeoFenceModel(cm)flowerModelWithCenter:radius:",
            "mangledName": "$s11VeloxitySDK13GeoFenceModelC06flowerE06center6radiusACSo22CLLocationCoordinate2DV_SdtFZ",
            "moduleName": "VeloxitySDK",
            "static": true,
            "objc_name": "flowerModelWithCenter:radius:",
            "declAttributes": [
              "Final",
              "AccessControl",
              "ObjC"
            ],
            "funcSelfKind": "NonMutating"
          },
          {
            "kind": "Constructor",
            "name": "init",
            "printedName": "init(center:radius:identifier:)",
            "children": [
              {
                "kind": "TypeNominal",
                "name": "GeoFenceModel",
                "printedName": "VeloxitySDK.GeoFenceModel",
                "usr": "c:@M@VeloxitySDK@objc(cs)GeoFenceModel"
              },
              {
                "kind": "TypeNominal",
                "name": "CLLocationCoordinate2D",
                "printedName": "CoreLocation.CLLocationCoordinate2D",
                "usr": "c:@S@CLLocationCoordinate2D"
              },
              {
                "kind": "TypeNominal",
                "name": "Double",
                "printedName": "Swift.Double",
                "usr": "s:Sd"
              },
              {
                "kind": "TypeNominal",
                "name": "String",
                "printedName": "Swift.String",
                "usr": "s:SS"
              }
            ],
            "declKind": "Constructor",
            "usr": "c:@M@VeloxitySDK@objc(cs)GeoFenceModel(im)initWithCenter:radius:identifier:",
            "mangledName": "$s11VeloxitySDK13GeoFenceModelC6center6radius10identifierACSo22CLLocationCoordinate2DV_SdSStcfc",
            "moduleName": "VeloxitySDK",
            "objc_name": "initWithCenter:radius:identifier:",
            "declAttributes": [
              "AccessControl",
              "ObjC"
            ],
            "init_kind": "Designated"
          },
          {
            "kind": "Constructor",
            "name": "init",
            "printedName": "init(dictionary:)",
            "children": [
              {
                "kind": "TypeNominal",
                "name": "GeoFenceModel",
                "printedName": "VeloxitySDK.GeoFenceModel",
                "usr": "c:@M@VeloxitySDK@objc(cs)GeoFenceModel"
              },
              {
                "kind": "TypeNominal",
                "name": "NSDictionary",
                "printedName": "Foundation.NSDictionary",
                "usr": "c:objc(cs)NSDictionary"
              }
            ],
            "declKind": "Constructor",
            "usr": "c:@M@VeloxitySDK@objc(cs)GeoFenceModel(im)initWithDictionary:",
            "mangledName": "$s11VeloxitySDK13GeoFenceModelC10dictionaryACSo12NSDictionaryC_tcfc",
            "moduleName": "VeloxitySDK",
            "objc_name": "initWithDictionary:",
            "declAttributes": [
              "AccessControl",
              "ObjC"
            ],
            "init_kind": "Designated"
          },
          {
            "kind": "Function",
            "name": "isFlower",
            "printedName": "isFlower()",
            "children": [
              {
                "kind": "TypeNominal",
                "name": "Bool",
                "printedName": "Swift.Bool",
                "usr": "s:Sb"
              }
            ],
            "declKind": "Func",
            "usr": "c:@M@VeloxitySDK@objc(cs)GeoFenceModel(im)isFlower",
            "mangledName": "$s11VeloxitySDK13GeoFenceModelC8isFlowerSbyF",
            "moduleName": "VeloxitySDK",
            "declAttributes": [
              "AccessControl",
              "ObjC"
            ],
            "funcSelfKind": "NonMutating"
          },
          {
            "kind": "Function",
            "name": "distance",
            "printedName": "distance(to:)",
            "children": [
              {
                "kind": "TypeNominal",
                "name": "Double",
                "printedName": "Swift.Double",
                "usr": "s:Sd"
              },
              {
                "kind": "TypeNominal",
                "name": "CLLocation",
                "printedName": "CoreLocation.CLLocation",
                "usr": "c:objc(cs)CLLocation"
              }
            ],
            "declKind": "Func",
            "usr": "s:11VeloxitySDK13GeoFenceModelC8distance2toSdSo10CLLocationC_tF",
            "mangledName": "$s11VeloxitySDK13GeoFenceModelC8distance2toSdSo10CLLocationC_tF",
            "moduleName": "VeloxitySDK",
            "declAttributes": [
              "AccessControl"
            ],
            "funcSelfKind": "NonMutating"
          },
          {
            "kind": "Function",
            "name": "distance",
            "printedName": "distance(to:)",
            "children": [
              {
                "kind": "TypeNominal",
                "name": "Double",
                "printedName": "Swift.Double",
                "usr": "s:Sd"
              },
              {
                "kind": "TypeNominal",
                "name": "GeoFenceModel",
                "printedName": "VeloxitySDK.GeoFenceModel",
                "usr": "c:@M@VeloxitySDK@objc(cs)GeoFenceModel"
              }
            ],
            "declKind": "Func",
            "usr": "s:11VeloxitySDK13GeoFenceModelC8distance2toSdAC_tF",
            "mangledName": "$s11VeloxitySDK13GeoFenceModelC8distance2toSdAC_tF",
            "moduleName": "VeloxitySDK",
            "declAttributes": [
              "AccessControl"
            ],
            "funcSelfKind": "NonMutating"
          },
          {
            "kind": "Var",
            "name": "centerLocation",
            "printedName": "centerLocation",
            "children": [
              {
                "kind": "TypeNominal",
                "name": "CLLocation",
                "printedName": "CoreLocation.CLLocation",
                "usr": "c:objc(cs)CLLocation"
              }
            ],
            "declKind": "Var",
            "usr": "c:@M@VeloxitySDK@objc(cs)GeoFenceModel(py)centerLocation",
            "mangledName": "$s11VeloxitySDK13GeoFenceModelC14centerLocationSo10CLLocationCvp",
            "moduleName": "VeloxitySDK",
            "declAttributes": [
              "AccessControl",
              "ObjC"
            ],
            "accessors": [
              {
                "kind": "Accessor",
                "name": "Get",
                "printedName": "Get()",
                "children": [
                  {
                    "kind": "TypeNominal",
                    "name": "CLLocation",
                    "printedName": "CoreLocation.CLLocation",
                    "usr": "c:objc(cs)CLLocation"
                  }
                ],
                "declKind": "Accessor",
                "usr": "c:@M@VeloxitySDK@objc(cs)GeoFenceModel(im)centerLocation",
                "mangledName": "$s11VeloxitySDK13GeoFenceModelC14centerLocationSo10CLLocationCvg",
                "moduleName": "VeloxitySDK",
                "declAttributes": [
                  "ObjC"
                ],
                "accessorKind": "get"
              }
            ]
          },
          {
            "kind": "Function",
            "name": "region",
            "printedName": "region()",
            "children": [
              {
                "kind": "TypeNominal",
                "name": "CLRegion",
                "printedName": "CoreLocation.CLRegion",
                "usr": "c:objc(cs)CLRegion"
              }
            ],
            "declKind": "Func",
            "usr": "c:@M@VeloxitySDK@objc(cs)GeoFenceModel(im)region",
            "mangledName": "$s11VeloxitySDK13GeoFenceModelC6regionSo8CLRegionCyF",
            "moduleName": "VeloxitySDK",
            "declAttributes": [
              "AccessControl",
              "ObjC"
            ],
            "funcSelfKind": "NonMutating"
          },
          {
            "kind": "Var",
            "name": "description",
            "printedName": "description",
            "children": [
              {
                "kind": "TypeNominal",
                "name": "String",
                "printedName": "Swift.String",
                "usr": "s:SS"
              }
            ],
            "declKind": "Var",
            "usr": "c:@M@VeloxitySDK@objc(cs)GeoFenceModel(py)description",
            "mangledName": "$s11VeloxitySDK13GeoFenceModelC11descriptionSSvp",
            "moduleName": "VeloxitySDK",
            "overriding": true,
            "objc_name": "description",
            "declAttributes": [
              "Dynamic",
              "ObjC",
              "Override",
              "AccessControl"
            ],
            "accessors": [
              {
                "kind": "Accessor",
                "name": "Get",
                "printedName": "Get()",
                "children": [
                  {
                    "kind": "TypeNominal",
                    "name": "String",
                    "printedName": "Swift.String",
                    "usr": "s:SS"
                  }
                ],
                "declKind": "Accessor",
                "usr": "c:@M@VeloxitySDK@objc(cs)GeoFenceModel(im)description",
                "mangledName": "$s11VeloxitySDK13GeoFenceModelC11descriptionSSvg",
                "moduleName": "VeloxitySDK",
                "overriding": true,
                "objc_name": "description",
                "declAttributes": [
                  "Dynamic",
                  "ObjC"
                ],
                "accessorKind": "get"
              }
            ]
          },
          {
            "kind": "Constructor",
            "name": "init",
            "printedName": "init()",
            "children": [
              {
                "kind": "TypeNominal",
                "name": "GeoFenceModel",
                "printedName": "VeloxitySDK.GeoFenceModel",
                "usr": "c:@M@VeloxitySDK@objc(cs)GeoFenceModel"
              }
            ],
            "declKind": "Constructor",
            "usr": "c:@M@VeloxitySDK@objc(cs)GeoFenceModel(im)init",
            "mangledName": "$s11VeloxitySDK13GeoFenceModelCACycfc",
            "moduleName": "VeloxitySDK",
            "overriding": true,
            "implicit": true,
            "objc_name": "init",
            "declAttributes": [
              "Dynamic",
              "ObjC",
              "Override"
            ],
            "init_kind": "Designated"
          }
        ],
        "declKind": "Class",
        "usr": "c:@M@VeloxitySDK@objc(cs)GeoFenceModel",
        "mangledName": "$s11VeloxitySDK13GeoFenceModelC",
        "moduleName": "VeloxitySDK",
        "declAttributes": [
          "AccessControl",
          "ObjC"
        ],
        "superclassUsr": "c:objc(cs)NSObject",
        "superclassNames": [
          "ObjectiveC.NSObject"
        ],
        "conformances": [
          {
            "kind": "Conformance",
            "name": "Equatable",
            "printedName": "Equatable",
            "usr": "s:SQ",
            "mangledName": "$sSQ"
          },
          {
            "kind": "Conformance",
            "name": "Hashable",
            "printedName": "Hashable",
            "usr": "s:SH",
            "mangledName": "$sSH"
          },
          {
            "kind": "Conformance",
            "name": "CVarArg",
            "printedName": "CVarArg",
            "usr": "s:s7CVarArgP",
            "mangledName": "$ss7CVarArgP"
          },
          {
            "kind": "Conformance",
            "name": "_KeyValueCodingAndObservingPublishing",
            "printedName": "_KeyValueCodingAndObservingPublishing",
            "usr": "s:10Foundation37_KeyValueCodingAndObservingPublishingP",
            "mangledName": "$s10Foundation37_KeyValueCodingAndObservingPublishingP"
          },
          {
            "kind": "Conformance",
            "name": "_KeyValueCodingAndObserving",
            "printedName": "_KeyValueCodingAndObserving",
            "usr": "s:10Foundation27_KeyValueCodingAndObservingP",
            "mangledName": "$s10Foundation27_KeyValueCodingAndObservingP"
          },
          {
            "kind": "Conformance",
            "name": "CustomStringConvertible",
            "printedName": "CustomStringConvertible",
            "usr": "s:s23CustomStringConvertibleP",
            "mangledName": "$ss23CustomStringConvertibleP"
          },
          {
            "kind": "Conformance",
            "name": "CustomDebugStringConvertible",
            "printedName": "CustomDebugStringConvertible",
            "usr": "s:s28CustomDebugStringConvertibleP",
            "mangledName": "$ss28CustomDebugStringConvertibleP"
          }
        ]
      },
      {
        "kind": "Import",
        "name": "Foundation",
        "printedName": "Foundation",
        "declKind": "Import",
        "moduleName": "VeloxitySDK",
        "declAttributes": [
          "RawDocComment"
        ]
      },
      {
        "kind": "Import",
        "name": "MapKit",
        "printedName": "MapKit",
        "declKind": "Import",
        "moduleName": "VeloxitySDK"
      },
      {
        "kind": "TypeDecl",
        "name": "BuildType",
        "printedName": "BuildType",
        "children": [
          {
            "kind": "Var",
            "name": "none",
            "printedName": "none",
            "children": [
              {
                "kind": "TypeFunc",
                "name": "Function",
                "printedName": "(VeloxitySDK.BuildType.Type) -> VeloxitySDK.BuildType",
                "children": [
                  {
                    "kind": "TypeNominal",
                    "name": "BuildType",
                    "printedName": "VeloxitySDK.BuildType",
                    "usr": "s:11VeloxitySDK9BuildTypeO"
                  },
                  {
                    "kind": "TypeNominal",
                    "name": "Metatype",
                    "printedName": "VeloxitySDK.BuildType.Type",
                    "children": [
                      {
                        "kind": "TypeNominal",
                        "name": "BuildType",
                        "printedName": "VeloxitySDK.BuildType",
                        "usr": "s:11VeloxitySDK9BuildTypeO"
                      }
                    ]
                  }
                ]
              }
            ],
            "declKind": "EnumElement",
            "usr": "s:11VeloxitySDK9BuildTypeO4noneyA2CmF",
            "mangledName": "$s11VeloxitySDK9BuildTypeO4noneyA2CmF",
            "moduleName": "VeloxitySDK"
          },
          {
            "kind": "Var",
            "name": "center",
            "printedName": "center",
            "children": [
              {
                "kind": "TypeFunc",
                "name": "Function",
                "printedName": "(VeloxitySDK.BuildType.Type) -> VeloxitySDK.BuildType",
                "children": [
                  {
                    "kind": "TypeNominal",
                    "name": "BuildType",
                    "printedName": "VeloxitySDK.BuildType",
                    "usr": "s:11VeloxitySDK9BuildTypeO"
                  },
                  {
                    "kind": "TypeNominal",
                    "name": "Metatype",
                    "printedName": "VeloxitySDK.BuildType.Type",
                    "children": [
                      {
                        "kind": "TypeNominal",
                        "name": "BuildType",
                        "printedName": "VeloxitySDK.BuildType",
                        "usr": "s:11VeloxitySDK9BuildTypeO"
                      }
                    ]
                  }
                ]
              }
            ],
            "declKind": "EnumElement",
            "usr": "s:11VeloxitySDK9BuildTypeO6centeryA2CmF",
            "mangledName": "$s11VeloxitySDK9BuildTypeO6centeryA2CmF",
            "moduleName": "VeloxitySDK"
          },
          {
            "kind": "Var",
            "name": "single",
            "printedName": "single",
            "children": [
              {
                "kind": "TypeFunc",
                "name": "Function",
                "printedName": "(VeloxitySDK.BuildType.Type) -> VeloxitySDK.BuildType",
                "children": [
                  {
                    "kind": "TypeNominal",
                    "name": "BuildType",
                    "printedName": "VeloxitySDK.BuildType",
                    "usr": "s:11VeloxitySDK9BuildTypeO"
                  },
                  {
                    "kind": "TypeNominal",
                    "name": "Metatype",
                    "printedName": "VeloxitySDK.BuildType.Type",
                    "children": [
                      {
                        "kind": "TypeNominal",
                        "name": "BuildType",
                        "printedName": "VeloxitySDK.BuildType",
                        "usr": "s:11VeloxitySDK9BuildTypeO"
                      }
                    ]
                  }
                ]
              }
            ],
            "declKind": "EnumElement",
            "usr": "s:11VeloxitySDK9BuildTypeO6singleyA2CmF",
            "mangledName": "$s11VeloxitySDK9BuildTypeO6singleyA2CmF",
            "moduleName": "VeloxitySDK"
          },
          {
            "kind": "Var",
            "name": "double",
            "printedName": "double",
            "children": [
              {
                "kind": "TypeFunc",
                "name": "Function",
                "printedName": "(VeloxitySDK.BuildType.Type) -> VeloxitySDK.BuildType",
                "children": [
                  {
                    "kind": "TypeNominal",
                    "name": "BuildType",
                    "printedName": "VeloxitySDK.BuildType",
                    "usr": "s:11VeloxitySDK9BuildTypeO"
                  },
                  {
                    "kind": "TypeNominal",
                    "name": "Metatype",
                    "printedName": "VeloxitySDK.BuildType.Type",
                    "children": [
                      {
                        "kind": "TypeNominal",
                        "name": "BuildType",
                        "printedName": "VeloxitySDK.BuildType",
                        "usr": "s:11VeloxitySDK9BuildTypeO"
                      }
                    ]
                  }
                ]
              }
            ],
            "declKind": "EnumElement",
            "usr": "s:11VeloxitySDK9BuildTypeO6doubleyA2CmF",
            "mangledName": "$s11VeloxitySDK9BuildTypeO6doubleyA2CmF",
            "moduleName": "VeloxitySDK"
          },
          {
            "kind": "Function",
            "name": "==",
            "printedName": "==(_:_:)",
            "children": [
              {
                "kind": "TypeNominal",
                "name": "Bool",
                "printedName": "Swift.Bool",
                "usr": "s:Sb"
              },
              {
                "kind": "TypeNominal",
                "name": "BuildType",
                "printedName": "VeloxitySDK.BuildType",
                "usr": "s:11VeloxitySDK9BuildTypeO"
              },
              {
                "kind": "TypeNominal",
                "name": "BuildType",
                "printedName": "VeloxitySDK.BuildType",
                "usr": "s:11VeloxitySDK9BuildTypeO"
              }
            ],
            "declKind": "Func",
            "usr": "s:11VeloxitySDK9BuildTypeO2eeoiySbAC_ACtFZ",
            "mangledName": "$s11VeloxitySDK9BuildTypeO2eeoiySbAC_ACtFZ",
            "moduleName": "VeloxitySDK",
            "static": true,
            "implicit": true,
            "funcSelfKind": "NonMutating"
          },
          {
            "kind": "Var",
            "name": "hashValue",
            "printedName": "hashValue",
            "children": [
              {
                "kind": "TypeNominal",
                "name": "Int",
                "printedName": "Swift.Int",
                "usr": "s:Si"
              }
            ],
            "declKind": "Var",
            "usr": "s:11VeloxitySDK9BuildTypeO9hashValueSivp",
            "mangledName": "$s11VeloxitySDK9BuildTypeO9hashValueSivp",
            "moduleName": "VeloxitySDK",
            "implicit": true,
            "accessors": [
              {
                "kind": "Accessor",
                "name": "Get",
                "printedName": "Get()",
                "children": [
                  {
                    "kind": "TypeNominal",
                    "name": "Int",
                    "printedName": "Swift.Int",
                    "usr": "s:Si"
                  }
                ],
                "declKind": "Accessor",
                "usr": "s:11VeloxitySDK9BuildTypeO9hashValueSivg",
                "mangledName": "$s11VeloxitySDK9BuildTypeO9hashValueSivg",
                "moduleName": "VeloxitySDK",
                "implicit": true,
                "accessorKind": "get"
              }
            ]
          },
          {
            "kind": "Function",
            "name": "hash",
            "printedName": "hash(into:)",
            "children": [
              {
                "kind": "TypeNominal",
                "name": "Void",
                "printedName": "()"
              },
              {
                "kind": "TypeNominal",
                "name": "Hasher",
                "printedName": "Swift.Hasher",
                "paramValueOwnership": "InOut",
                "usr": "s:s6HasherV"
              }
            ],
            "declKind": "Func",
            "usr": "s:11VeloxitySDK9BuildTypeO4hash4intoys6HasherVz_tF",
            "mangledName": "$s11VeloxitySDK9BuildTypeO4hash4intoys6HasherVz_tF",
            "moduleName": "VeloxitySDK",
            "implicit": true,
            "funcSelfKind": "NonMutating"
          }
        ],
        "declKind": "Enum",
        "usr": "s:11VeloxitySDK9BuildTypeO",
        "mangledName": "$s11VeloxitySDK9BuildTypeO",
        "moduleName": "VeloxitySDK",
        "declAttributes": [
          "AccessControl"
        ],
        "conformances": [
          {
            "kind": "Conformance",
            "name": "Equatable",
            "printedName": "Equatable",
            "usr": "s:SQ",
            "mangledName": "$sSQ"
          },
          {
            "kind": "Conformance",
            "name": "Hashable",
            "printedName": "Hashable",
            "usr": "s:SH",
            "mangledName": "$sSH"
          }
        ]
      },
      {
        "kind": "TypeDecl",
        "name": "FlowerGeoFenceBuilder",
        "printedName": "FlowerGeoFenceBuilder",
        "children": [
          {
            "kind": "Constructor",
            "name": "init",
            "printedName": "init(radius:)",
            "children": [
              {
                "kind": "TypeNominal",
                "name": "FlowerGeoFenceBuilder",
                "printedName": "VeloxitySDK.FlowerGeoFenceBuilder",
                "usr": "s:11VeloxitySDK21FlowerGeoFenceBuilderC"
              },
              {
                "kind": "TypeNominal",
                "name": "Double",
                "printedName": "Swift.Double",
                "usr": "s:Sd"
              }
            ],
            "declKind": "Constructor",
            "usr": "s:11VeloxitySDK21FlowerGeoFenceBuilderC6radiusACSd_tcfc",
            "mangledName": "$s11VeloxitySDK21FlowerGeoFenceBuilderC6radiusACSd_tcfc",
            "moduleName": "VeloxitySDK",
            "objc_name": "initWithRadius:",
            "declAttributes": [
              "AccessControl",
              "ObjC"
            ],
            "init_kind": "Designated"
          },
          {
            "kind": "Function",
            "name": "fences",
            "printedName": "fences(center:)",
            "children": [
              {
                "kind": "TypeNominal",
                "name": "Array",
                "printedName": "[VeloxitySDK.GeoFenceModel]",
                "children": [
                  {
                    "kind": "TypeNominal",
                    "name": "GeoFenceModel",
                    "printedName": "VeloxitySDK.GeoFenceModel",
                    "usr": "c:@M@VeloxitySDK@objc(cs)GeoFenceModel"
                  }
                ],
                "usr": "s:Sa"
              },
              {
                "kind": "TypeNominal",
                "name": "CLLocationCoordinate2D",
                "printedName": "CoreLocation.CLLocationCoordinate2D",
                "usr": "c:@S@CLLocationCoordinate2D"
              }
            ],
            "declKind": "Func",
            "usr": "s:11VeloxitySDK21FlowerGeoFenceBuilderC6fences6centerSayAA0dE5ModelCGSo22CLLocationCoordinate2DV_tF",
            "mangledName": "$s11VeloxitySDK21FlowerGeoFenceBuilderC6fences6centerSayAA0dE5ModelCGSo22CLLocationCoordinate2DV_tF",
            "moduleName": "VeloxitySDK",
            "objc_name": "fencesWithCenter:",
            "declAttributes": [
              "AccessControl",
              "ObjC"
            ],
            "funcSelfKind": "NonMutating"
          }
        ],
        "declKind": "Class",
        "usr": "s:11VeloxitySDK21FlowerGeoFenceBuilderC",
        "mangledName": "$s11VeloxitySDK21FlowerGeoFenceBuilderC",
        "moduleName": "VeloxitySDK",
        "declAttributes": [
          "AccessControl"
        ],
        "hasMissingDesignatedInitializers": true
      },
      {
        "kind": "Import",
        "name": "Foundation",
        "printedName": "Foundation",
        "declKind": "Import",
        "moduleName": "VeloxitySDK",
        "declAttributes": [
          "RawDocComment"
        ]
      },
      {
        "kind": "Import",
        "name": "MapKit",
        "printedName": "MapKit",
        "declKind": "Import",
        "moduleName": "VeloxitySDK"
      },
      {
        "kind": "TypeDecl",
        "name": "SmartGeoFenceResult",
        "printedName": "SmartGeoFenceResult",
        "children": [
          {
            "kind": "Var",
            "name": "geoFences",
            "printedName": "geoFences",
            "children": [
              {
                "kind": "TypeNominal",
                "name": "Array",
                "printedName": "[VeloxitySDK.GeoFenceModel]",
                "children": [
                  {
                    "kind": "TypeNominal",
                    "name": "GeoFenceModel",
                    "printedName": "VeloxitySDK.GeoFenceModel",
                    "usr": "c:@M@VeloxitySDK@objc(cs)GeoFenceModel"
                  }
                ],
                "usr": "s:Sa"
              }
            ],
            "declKind": "Var",
            "usr": "c:@M@VeloxitySDK@objc(cs)SmartGeoFenceResult(py)geoFences",
            "mangledName": "$s11VeloxitySDK19SmartGeoFenceResultC9geoFencesSayAA0dE5ModelCGvp",
            "moduleName": "VeloxitySDK",
            "declAttributes": [
              "Final",
              "HasStorage",
              "AccessControl",
              "ObjC"
            ],
            "isLet": true,
            "hasStorage": true,
            "accessors": [
              {
                "kind": "Accessor",
                "name": "Get",
                "printedName": "Get()",
                "children": [
                  {
                    "kind": "TypeNominal",
                    "name": "Array",
                    "printedName": "[VeloxitySDK.GeoFenceModel]",
                    "children": [
                      {
                        "kind": "TypeNominal",
                        "name": "GeoFenceModel",
                        "printedName": "VeloxitySDK.GeoFenceModel",
                        "usr": "c:@M@VeloxitySDK@objc(cs)GeoFenceModel"
                      }
                    ],
                    "usr": "s:Sa"
                  }
                ],
                "declKind": "Accessor",
                "usr": "c:@M@VeloxitySDK@objc(cs)SmartGeoFenceResult(im)geoFences",
                "mangledName": "$s11VeloxitySDK19SmartGeoFenceResultC9geoFencesSayAA0dE5ModelCGvg",
                "moduleName": "VeloxitySDK",
                "implicit": true,
                "declAttributes": [
                  "Final",
                  "ObjC"
                ],
                "accessorKind": "get"
              }
            ]
          },
          {
            "kind": "Var",
            "name": "latDisplacement",
            "printedName": "latDisplacement",
            "children": [
              {
                "kind": "TypeNominal",
                "name": "Double",
                "printedName": "Swift.Double",
                "usr": "s:Sd"
              }
            ],
            "declKind": "Var",
            "usr": "c:@M@VeloxitySDK@objc(cs)SmartGeoFenceResult(py)latDisplacement",
            "mangledName": "$s11VeloxitySDK19SmartGeoFenceResultC15latDisplacementSdvp",
            "moduleName": "VeloxitySDK",
            "declAttributes": [
              "Final",
              "HasStorage",
              "AccessControl",
              "ObjC"
            ],
            "isLet": true,
            "hasStorage": true,
            "accessors": [
              {
                "kind": "Accessor",
                "name": "Get",
                "printedName": "Get()",
                "children": [
                  {
                    "kind": "TypeNominal",
                    "name": "Double",
                    "printedName": "Swift.Double",
                    "usr": "s:Sd"
                  }
                ],
                "declKind": "Accessor",
                "usr": "c:@M@VeloxitySDK@objc(cs)SmartGeoFenceResult(im)latDisplacement",
                "mangledName": "$s11VeloxitySDK19SmartGeoFenceResultC15latDisplacementSdvg",
                "moduleName": "VeloxitySDK",
                "implicit": true,
                "declAttributes": [
                  "Final",
                  "ObjC"
                ],
                "accessorKind": "get"
              }
            ]
          },
          {
            "kind": "Var",
            "name": "lonDisplacement",
            "printedName": "lonDisplacement",
            "children": [
              {
                "kind": "TypeNominal",
                "name": "Double",
                "printedName": "Swift.Double",
                "usr": "s:Sd"
              }
            ],
            "declKind": "Var",
            "usr": "c:@M@VeloxitySDK@objc(cs)SmartGeoFenceResult(py)lonDisplacement",
            "mangledName": "$s11VeloxitySDK19SmartGeoFenceResultC15lonDisplacementSdvp",
            "moduleName": "VeloxitySDK",
            "declAttributes": [
              "Final",
              "HasStorage",
              "AccessControl",
              "ObjC"
            ],
            "isLet": true,
            "hasStorage": true,
            "accessors": [
              {
                "kind": "Accessor",
                "name": "Get",
                "printedName": "Get()",
                "children": [
                  {
                    "kind": "TypeNominal",
                    "name": "Double",
                    "printedName": "Swift.Double",
                    "usr": "s:Sd"
                  }
                ],
                "declKind": "Accessor",
                "usr": "c:@M@VeloxitySDK@objc(cs)SmartGeoFenceResult(im)lonDisplacement",
                "mangledName": "$s11VeloxitySDK19SmartGeoFenceResultC15lonDisplacementSdvg",
                "moduleName": "VeloxitySDK",
                "implicit": true,
                "declAttributes": [
                  "Final",
                  "ObjC"
                ],
                "accessorKind": "get"
              }
            ]
          },
          {
            "kind": "Constructor",
            "name": "init",
            "printedName": "init()",
            "children": [
              {
                "kind": "TypeNominal",
                "name": "SmartGeoFenceResult",
                "printedName": "VeloxitySDK.SmartGeoFenceResult",
                "usr": "c:@M@VeloxitySDK@objc(cs)SmartGeoFenceResult"
              }
            ],
            "declKind": "Constructor",
            "usr": "c:@M@VeloxitySDK@objc(cs)SmartGeoFenceResult(im)init",
            "mangledName": "$s11VeloxitySDK19SmartGeoFenceResultCACycfc",
            "moduleName": "VeloxitySDK",
            "overriding": true,
            "implicit": true,
            "objc_name": "init",
            "declAttributes": [
              "Dynamic",
              "ObjC",
              "Override"
            ],
            "init_kind": "Designated"
          }
        ],
        "declKind": "Class",
        "usr": "c:@M@VeloxitySDK@objc(cs)SmartGeoFenceResult",
        "mangledName": "$s11VeloxitySDK19SmartGeoFenceResultC",
        "moduleName": "VeloxitySDK",
        "declAttributes": [
          "AccessControl",
          "ObjC"
        ],
        "superclassUsr": "c:objc(cs)NSObject",
        "hasMissingDesignatedInitializers": true,
        "superclassNames": [
          "ObjectiveC.NSObject"
        ],
        "conformances": [
          {
            "kind": "Conformance",
            "name": "Equatable",
            "printedName": "Equatable",
            "usr": "s:SQ",
            "mangledName": "$sSQ"
          },
          {
            "kind": "Conformance",
            "name": "Hashable",
            "printedName": "Hashable",
            "usr": "s:SH",
            "mangledName": "$sSH"
          },
          {
            "kind": "Conformance",
            "name": "CVarArg",
            "printedName": "CVarArg",
            "usr": "s:s7CVarArgP",
            "mangledName": "$ss7CVarArgP"
          },
          {
            "kind": "Conformance",
            "name": "_KeyValueCodingAndObservingPublishing",
            "printedName": "_KeyValueCodingAndObservingPublishing",
            "usr": "s:10Foundation37_KeyValueCodingAndObservingPublishingP",
            "mangledName": "$s10Foundation37_KeyValueCodingAndObservingPublishingP"
          },
          {
            "kind": "Conformance",
            "name": "_KeyValueCodingAndObserving",
            "printedName": "_KeyValueCodingAndObserving",
            "usr": "s:10Foundation27_KeyValueCodingAndObservingP",
            "mangledName": "$s10Foundation27_KeyValueCodingAndObservingP"
          },
          {
            "kind": "Conformance",
            "name": "CustomStringConvertible",
            "printedName": "CustomStringConvertible",
            "usr": "s:s23CustomStringConvertibleP",
            "mangledName": "$ss23CustomStringConvertibleP"
          },
          {
            "kind": "Conformance",
            "name": "CustomDebugStringConvertible",
            "printedName": "CustomDebugStringConvertible",
            "usr": "s:s28CustomDebugStringConvertibleP",
            "mangledName": "$ss28CustomDebugStringConvertibleP"
          }
        ]
      },
      {
        "kind": "TypeDecl",
        "name": "SmartGeoFenceManager",
        "printedName": "SmartGeoFenceManager",
        "children": [
          {
            "kind": "Constructor",
            "name": "init",
            "printedName": "init(fenceList:)",
            "children": [
              {
                "kind": "TypeNominal",
                "name": "SmartGeoFenceManager",
                "printedName": "VeloxitySDK.SmartGeoFenceManager",
                "usr": "c:@M@VeloxitySDK@objc(cs)SmartGeoFenceManager"
              },
              {
                "kind": "TypeNominal",
                "name": "Array",
                "printedName": "[VeloxitySDK.GeoFenceModel]",
                "children": [
                  {
                    "kind": "TypeNominal",
                    "name": "GeoFenceModel",
                    "printedName": "VeloxitySDK.GeoFenceModel",
                    "usr": "c:@M@VeloxitySDK@objc(cs)GeoFenceModel"
                  }
                ],
                "usr": "s:Sa"
              }
            ],
            "declKind": "Constructor",
            "usr": "c:@M@VeloxitySDK@objc(cs)SmartGeoFenceManager(im)initWithFenceList:",
            "mangledName": "$s11VeloxitySDK20SmartGeoFenceManagerC9fenceListACSayAA0dE5ModelCG_tcfc",
            "moduleName": "VeloxitySDK",
            "objc_name": "initWithFenceList:",
            "declAttributes": [
              "AccessControl",
              "ObjC"
            ],
            "init_kind": "Designated"
          },
          {
            "kind": "Function",
            "name": "update",
            "printedName": "update(fenceList:)",
            "children": [
              {
                "kind": "TypeNominal",
                "name": "Void",
                "printedName": "()"
              },
              {
                "kind": "TypeNominal",
                "name": "Array",
                "printedName": "[VeloxitySDK.GeoFenceModel]",
                "children": [
                  {
                    "kind": "TypeNominal",
                    "name": "GeoFenceModel",
                    "printedName": "VeloxitySDK.GeoFenceModel",
                    "usr": "c:@M@VeloxitySDK@objc(cs)GeoFenceModel"
                  }
                ],
                "usr": "s:Sa"
              }
            ],
            "declKind": "Func",
            "usr": "c:@M@VeloxitySDK@objc(cs)SmartGeoFenceManager(im)updateWithFenceList:",
            "mangledName": "$s11VeloxitySDK20SmartGeoFenceManagerC6update9fenceListySayAA0dE5ModelCG_tF",
            "moduleName": "VeloxitySDK",
            "objc_name": "updateWithFenceList:",
            "declAttributes": [
              "AccessControl",
              "ObjC"
            ],
            "funcSelfKind": "NonMutating"
          },
          {
            "kind": "Function",
            "name": "setBuildTypeNone",
            "printedName": "setBuildTypeNone()",
            "children": [
              {
                "kind": "TypeNominal",
                "name": "Void",
                "printedName": "()"
              }
            ],
            "declKind": "Func",
            "usr": "c:@M@VeloxitySDK@objc(cs)SmartGeoFenceManager(im)setBuildTypeNone",
            "mangledName": "$s11VeloxitySDK20SmartGeoFenceManagerC16setBuildTypeNoneyyF",
            "moduleName": "VeloxitySDK",
            "declAttributes": [
              "AccessControl",
              "ObjC"
            ],
            "funcSelfKind": "NonMutating"
          },
          {
            "kind": "Function",
            "name": "setBuildTypeDefault",
            "printedName": "setBuildTypeDefault()",
            "children": [
              {
                "kind": "TypeNominal",
                "name": "Void",
                "printedName": "()"
              }
            ],
            "declKind": "Func",
            "usr": "c:@M@VeloxitySDK@objc(cs)SmartGeoFenceManager(im)setBuildTypeDefault",
            "mangledName": "$s11VeloxitySDK20SmartGeoFenceManagerC19setBuildTypeDefaultyyF",
            "moduleName": "VeloxitySDK",
            "declAttributes": [
              "AccessControl",
              "ObjC"
            ],
            "funcSelfKind": "NonMutating"
          },
          {
            "kind": "Function",
            "name": "filterFor",
            "printedName": "filterFor(coordinate:count:)",
            "children": [
              {
                "kind": "TypeNominal",
                "name": "SmartGeoFenceResult",
                "printedName": "VeloxitySDK.SmartGeoFenceResult",
                "usr": "c:@M@VeloxitySDK@objc(cs)SmartGeoFenceResult"
              },
              {
                "kind": "TypeNominal",
                "name": "CLLocationCoordinate2D",
                "printedName": "CoreLocation.CLLocationCoordinate2D",
                "usr": "c:@S@CLLocationCoordinate2D"
              },
              {
                "kind": "TypeNominal",
                "name": "Int",
                "printedName": "Swift.Int",
                "usr": "s:Si"
              }
            ],
            "declKind": "Func",
            "usr": "c:@M@VeloxitySDK@objc(cs)SmartGeoFenceManager(im)filterForCoordinate:count:",
            "mangledName": "$s11VeloxitySDK20SmartGeoFenceManagerC9filterFor10coordinate5countAA0cdE6ResultCSo22CLLocationCoordinate2DV_SitF",
            "moduleName": "VeloxitySDK",
            "objc_name": "filterForCoordinate:count:",
            "declAttributes": [
              "AccessControl",
              "ObjC"
            ],
            "funcSelfKind": "NonMutating"
          },
          {
            "kind": "Constructor",
            "name": "init",
            "printedName": "init()",
            "children": [
              {
                "kind": "TypeNominal",
                "name": "SmartGeoFenceManager",
                "printedName": "VeloxitySDK.SmartGeoFenceManager",
                "usr": "c:@M@VeloxitySDK@objc(cs)SmartGeoFenceManager"
              }
            ],
            "declKind": "Constructor",
            "usr": "c:@M@VeloxitySDK@objc(cs)SmartGeoFenceManager(im)init",
            "mangledName": "$s11VeloxitySDK20SmartGeoFenceManagerCACycfc",
            "moduleName": "VeloxitySDK",
            "overriding": true,
            "implicit": true,
            "objc_name": "init",
            "declAttributes": [
              "Dynamic",
              "ObjC",
              "Override"
            ],
            "init_kind": "Designated"
          }
        ],
        "declKind": "Class",
        "usr": "c:@M@VeloxitySDK@objc(cs)SmartGeoFenceManager",
        "mangledName": "$s11VeloxitySDK20SmartGeoFenceManagerC",
        "moduleName": "VeloxitySDK",
        "declAttributes": [
          "AccessControl",
          "ObjC"
        ],
        "superclassUsr": "c:objc(cs)NSObject",
        "superclassNames": [
          "ObjectiveC.NSObject"
        ],
        "conformances": [
          {
            "kind": "Conformance",
            "name": "Equatable",
            "printedName": "Equatable",
            "usr": "s:SQ",
            "mangledName": "$sSQ"
          },
          {
            "kind": "Conformance",
            "name": "Hashable",
            "printedName": "Hashable",
            "usr": "s:SH",
            "mangledName": "$sSH"
          },
          {
            "kind": "Conformance",
            "name": "CVarArg",
            "printedName": "CVarArg",
            "usr": "s:s7CVarArgP",
            "mangledName": "$ss7CVarArgP"
          },
          {
            "kind": "Conformance",
            "name": "_KeyValueCodingAndObservingPublishing",
            "printedName": "_KeyValueCodingAndObservingPublishing",
            "usr": "s:10Foundation37_KeyValueCodingAndObservingPublishingP",
            "mangledName": "$s10Foundation37_KeyValueCodingAndObservingPublishingP"
          },
          {
            "kind": "Conformance",
            "name": "_KeyValueCodingAndObserving",
            "printedName": "_KeyValueCodingAndObserving",
            "usr": "s:10Foundation27_KeyValueCodingAndObservingP",
            "mangledName": "$s10Foundation27_KeyValueCodingAndObservingP"
          },
          {
            "kind": "Conformance",
            "name": "CustomStringConvertible",
            "printedName": "CustomStringConvertible",
            "usr": "s:s23CustomStringConvertibleP",
            "mangledName": "$ss23CustomStringConvertibleP"
          },
          {
            "kind": "Conformance",
            "name": "CustomDebugStringConvertible",
            "printedName": "CustomDebugStringConvertible",
            "usr": "s:s28CustomDebugStringConvertibleP",
            "mangledName": "$ss28CustomDebugStringConvertibleP"
          }
        ]
      }
    ],
    "json_format_version": 8
  },
  "ConstValues": [
    {
      "filePath": "\/Users\/vskor\/Desktop\/workspace\/vlx_ios_sdk\/veloxitySDK\/VeloxitySDK\/Flower\/GeoFenceModel.swift",
      "kind": "StringLiteral",
      "offset": 142,
      "length": 13,
      "value": "\"VeloxitySDK.GeoFenceModel\""
    },
    {
      "filePath": "\/Users\/vskor\/Desktop\/workspace\/vlx_ios_sdk\/veloxitySDK\/VeloxitySDK\/Flower\/FlowerGeoFenceBuilder.swift",
      "kind": "FloatLiteral",
      "offset": 348,
      "length": 3,
      "value": "0.0"
    },
    {
      "filePath": "\/Users\/vskor\/Desktop\/workspace\/vlx_ios_sdk\/veloxitySDK\/VeloxitySDK\/Flower\/FlowerGeoFenceBuilder.swift",
      "kind": "IntegerLiteral",
      "offset": 391,
      "length": 1,
      "value": "4"
    },
    {
      "filePath": "\/Users\/vskor\/Desktop\/workspace\/vlx_ios_sdk\/veloxitySDK\/VeloxitySDK\/Flower\/FlowerGeoFenceBuilder.swift",
      "kind": "IntegerLiteral",
      "offset": 432,
      "length": 1,
      "value": "2"
    },
    {
      "filePath": "\/Users\/vskor\/Desktop\/workspace\/vlx_ios_sdk\/veloxitySDK\/VeloxitySDK\/Flower\/FlowerGeoFenceBuilder.swift",
      "kind": "IntegerLiteral",
      "offset": 436,
      "length": 1,
      "value": "4"
    },
    {
      "filePath": "\/Users\/vskor\/Desktop\/workspace\/vlx_ios_sdk\/veloxitySDK\/VeloxitySDK\/Flower\/FlowerGeoFenceBuilder.swift",
      "kind": "IntegerLiteral",
      "offset": 477,
      "length": 1,
      "value": "3"
    },
    {
      "filePath": "\/Users\/vskor\/Desktop\/workspace\/vlx_ios_sdk\/veloxitySDK\/VeloxitySDK\/Flower\/FlowerGeoFenceBuilder.swift",
      "kind": "IntegerLiteral",
      "offset": 481,
      "length": 1,
      "value": "4"
    },
    {
      "filePath": "\/Users\/vskor\/Desktop\/workspace\/vlx_ios_sdk\/veloxitySDK\/VeloxitySDK\/Flower\/FlowerGeoFenceBuilder.swift",
      "kind": "IntegerLiteral",
      "offset": 522,
      "length": 1,
      "value": "4"
    },
    {
      "filePath": "\/Users\/vskor\/Desktop\/workspace\/vlx_ios_sdk\/veloxitySDK\/VeloxitySDK\/Flower\/FlowerGeoFenceBuilder.swift",
      "kind": "IntegerLiteral",
      "offset": 526,
      "length": 1,
      "value": "4"
    },
    {
      "filePath": "\/Users\/vskor\/Desktop\/workspace\/vlx_ios_sdk\/veloxitySDK\/VeloxitySDK\/Flower\/FlowerGeoFenceBuilder.swift",
      "kind": "IntegerLiteral",
      "offset": 567,
      "length": 1,
      "value": "5"
    },
    {
      "filePath": "\/Users\/vskor\/Desktop\/workspace\/vlx_ios_sdk\/veloxitySDK\/VeloxitySDK\/Flower\/FlowerGeoFenceBuilder.swift",
      "kind": "IntegerLiteral",
      "offset": 571,
      "length": 1,
      "value": "4"
    },
    {
      "filePath": "\/Users\/vskor\/Desktop\/workspace\/vlx_ios_sdk\/veloxitySDK\/VeloxitySDK\/Flower\/FlowerGeoFenceBuilder.swift",
      "kind": "IntegerLiteral",
      "offset": 612,
      "length": 1,
      "value": "6"
    },
    {
      "filePath": "\/Users\/vskor\/Desktop\/workspace\/vlx_ios_sdk\/veloxitySDK\/VeloxitySDK\/Flower\/FlowerGeoFenceBuilder.swift",
      "kind": "IntegerLiteral",
      "offset": 616,
      "length": 1,
      "value": "4"
    },
    {
      "filePath": "\/Users\/vskor\/Desktop\/workspace\/vlx_ios_sdk\/veloxitySDK\/VeloxitySDK\/Flower\/FlowerGeoFenceBuilder.swift",
      "kind": "IntegerLiteral",
      "offset": 657,
      "length": 1,
      "value": "7"
    },
    {
      "filePath": "\/Users\/vskor\/Desktop\/workspace\/vlx_ios_sdk\/veloxitySDK\/VeloxitySDK\/Flower\/FlowerGeoFenceBuilder.swift",
      "kind": "IntegerLiteral",
      "offset": 661,
      "length": 1,
      "value": "4"
    },
    {
      "filePath": "\/Users\/vskor\/Desktop\/workspace\/vlx_ios_sdk\/veloxitySDK\/VeloxitySDK\/Flower\/FlowerGeoFenceBuilder.swift",
      "kind": "IntegerLiteral",
      "offset": 913,
      "length": 3,
      "value": "400"
    },
    {
      "filePath": "\/Users\/vskor\/Desktop\/workspace\/vlx_ios_sdk\/veloxitySDK\/VeloxitySDK\/Flower\/SmartGeoFenceManager.swift",
      "kind": "StringLiteral",
      "offset": 151,
      "length": 19,
      "value": "\"VeloxitySDK.SmartGeoFenceResult\""
    },
    {
      "filePath": "\/Users\/vskor\/Desktop\/workspace\/vlx_ios_sdk\/veloxitySDK\/VeloxitySDK\/Flower\/SmartGeoFenceManager.swift",
      "kind": "IntegerLiteral",
      "offset": 741,
      "length": 3,
      "value": "400"
    },
    {
      "filePath": "\/Users\/vskor\/Desktop\/workspace\/vlx_ios_sdk\/veloxitySDK\/VeloxitySDK\/Flower\/SmartGeoFenceManager.swift",
      "kind": "StringLiteral",
      "offset": 614,
      "length": 20,
      "value": "\"VeloxitySDK.SmartGeoFenceManager\""
    }
  ]
}